[
  {
    "_id": "600947d763f4d4318d32b18d",
    "simpleSpread": 0.0049000000000001265,
    "spread": 0.0014109855301994462,
    "askQty": 308.88,
    "askPrice": 3.4752,
    "bidQty": 75.61,
    "bidPrice": 3.4703,
    "symbol": "OMGUSDT",
    "createdAt": "2021-01-21T09:22:31.110Z",
    "updatedAt": "2021-01-21T09:22:31.110Z",
    "__v": 0,
    "id": "600947d763f4d4318d32b18d"
  },
  {
    "_id": "600947d763f4d4318d32b18e",
    "simpleSpread": 0.016099999999998005,
    "spread": 0.0010026061532616153,
    "askQty": 35.54,
    "askPrice": 16.0662,
    "bidQty": 312.14,
    "bidPrice": 16.0501,
    "symbol": "DOTUSDT",
    "createdAt": "2021-01-21T09:22:31.116Z",
    "updatedAt": "2021-01-21T09:22:31.116Z",
    "__v": 0,
    "id": "600947d763f4d4318d32b18e"
  },
  {
    "_id": "600947df63f4d4318d32b18f",
    "simpleSpread": 0.027000000000001023,
    "spread": 0.0011240866795728896,
    "askQty": 31.6,
    "askPrice": 24.033,
    "bidQty": 76.837,
    "bidPrice": 24.006,
    "symbol": "NEOUSDT",
    "createdAt": "2021-01-21T09:22:39.261Z",
    "updatedAt": "2021-01-21T09:22:39.261Z",
    "__v": 0,
    "id": "600947df63f4d4318d32b18f"
  },
  {
    "_id": "600947df63f4d4318d32b190",
    "simpleSpread": 0.005900000000000016,
    "spread": 0.0016982082463841165,
    "askQty": 1102.1,
    "askPrice": 3.4772,
    "bidQty": 262.45,
    "bidPrice": 3.4713,
    "symbol": "OMGUSDT",
    "createdAt": "2021-01-21T09:22:39.264Z",
    "updatedAt": "2021-01-21T09:22:39.264Z",
    "__v": 0,
    "id": "600947df63f4d4318d32b190"
  },
  {
    "_id": "600947e963f4d4318d32b191",
    "simpleSpread": 0.00034000000000000696,
    "spread": 0.0012332245194051758,
    "askQty": 545.6,
    "askPrice": 0.27587,
    "bidQty": 6878.9,
    "bidPrice": 0.27553,
    "symbol": "XLMUSDT",
    "createdAt": "2021-01-21T09:22:49.213Z",
    "updatedAt": "2021-01-21T09:22:49.213Z",
    "__v": 0,
    "id": "600947e963f4d4318d32b191"
  },
  {
    "_id": "600947e963f4d4318d32b192",
    "simpleSpread": 0.005599999999999827,
    "spread": 0.001611510791366857,
    "askQty": 428.69,
    "askPrice": 3.4778,
    "bidQty": 51.3,
    "bidPrice": 3.4722,
    "symbol": "OMGUSDT",
    "createdAt": "2021-01-21T09:22:49.216Z",
    "updatedAt": "2021-01-21T09:22:49.216Z",
    "__v": 0,
    "id": "600947e963f4d4318d32b192"
  },
  {
    "_id": "600947f363f4d4318d32b193",
    "simpleSpread": 0.15000000000000568,
    "spread": 0.0010464994593086525,
    "askQty": 16.96361,
    "askPrice": 143.41,
    "bidQty": 7,
    "bidPrice": 143.26,
    "symbol": "XMRUSDT",
    "createdAt": "2021-01-21T09:22:59.211Z",
    "updatedAt": "2021-01-21T09:22:59.211Z",
    "__v": 0,
    "id": "600947f363f4d4318d32b193"
  },
  {
    "_id": "600947fd63f4d4318d32b194",
    "simpleSpread": 0.00028999999999995696,
    "spread": 0.001053568509200403,
    "askQty": 1454.5,
    "askPrice": 0.2754,
    "bidQty": 20000,
    "bidPrice": 0.27511,
    "symbol": "XLMUSDT",
    "createdAt": "2021-01-21T09:23:09.230Z",
    "updatedAt": "2021-01-21T09:23:09.230Z",
    "__v": 0,
    "id": "600947fd63f4d4318d32b194"
  },
  {
    "_id": "600947fd63f4d4318d32b195",
    "simpleSpread": 0.23999999999998067,
    "spread": 0.0016773832820798204,
    "askQty": 2.62864,
    "askPrice": 143.2,
    "bidQty": 3.7,
    "bidPrice": 142.96,
    "symbol": "XMRUSDT",
    "createdAt": "2021-01-21T09:23:09.236Z",
    "updatedAt": "2021-01-21T09:23:09.236Z",
    "__v": 0,
    "id": "600947fd63f4d4318d32b195"
  },
  {
    "_id": "600947fd63f4d4318d32b196",
    "simpleSpread": 0.12000000000000455,
    "spread": 0.0011157601115760534,
    "askQty": 7.31359,
    "askPrice": 107.61,
    "bidQty": 1,
    "bidPrice": 107.49,
    "symbol": "DASHUSDT",
    "createdAt": "2021-01-21T09:23:09.239Z",
    "updatedAt": "2021-01-21T09:23:09.239Z",
    "__v": 0,
    "id": "600947fd63f4d4318d32b196"
  },
  {
    "_id": "600947fd63f4d4318d32b197",
    "simpleSpread": 0.01699999999999946,
    "spread": 0.0010617567702607836,
    "askQty": 84,
    "askPrice": 16.0197,
    "bidQty": 5.55,
    "bidPrice": 16.0027,
    "symbol": "DOTUSDT",
    "createdAt": "2021-01-21T09:23:09.247Z",
    "updatedAt": "2021-01-21T09:23:09.247Z",
    "__v": 0,
    "id": "600947fd63f4d4318d32b197"
  },
  {
    "_id": "6009481b63f4d4318d32b198",
    "simpleSpread": 0.01810000000000045,
    "spread": 0.001128657614541628,
    "askQty": 84,
    "askPrice": 16.0458,
    "bidQty": 80,
    "bidPrice": 16.0277,
    "symbol": "DOTUSDT",
    "createdAt": "2021-01-21T09:23:39.822Z",
    "updatedAt": "2021-01-21T09:23:39.822Z",
    "__v": 0,
    "id": "6009481b63f4d4318d32b198"
  },
  {
    "_id": "6009481b63f4d4318d32b199",
    "simpleSpread": 0.19999999999998863,
    "spread": 0.0013964530093561558,
    "askQty": 3.7,
    "askPrice": 143.32,
    "bidQty": 8.74866,
    "bidPrice": 143.12,
    "symbol": "XMRUSDT",
    "createdAt": "2021-01-21T09:23:39.836Z",
    "updatedAt": "2021-01-21T09:23:39.836Z",
    "__v": 0,
    "id": "6009481b63f4d4318d32b199"
  },
  {
    "_id": "6009482563f4d4318d32b19a",
    "simpleSpread": 0.15000000000000568,
    "spread": 0.0010472300764478352,
    "askQty": 12.25317,
    "askPrice": 143.31,
    "bidQty": 5.25423,
    "bidPrice": 143.16,
    "symbol": "XMRUSDT",
    "createdAt": "2021-01-21T09:23:49.252Z",
    "updatedAt": "2021-01-21T09:23:49.252Z",
    "__v": 0,
    "id": "6009482563f4d4318d32b19a"
  },
  {
    "_id": "6009482563f4d4318d32b19b",
    "simpleSpread": 0.11999999999999034,
    "spread": 0.0011135857461023603,
    "askQty": 10.25641,
    "askPrice": 107.82,
    "bidQty": 5.6,
    "bidPrice": 107.7,
    "symbol": "DASHUSDT",
    "createdAt": "2021-01-21T09:23:49.258Z",
    "updatedAt": "2021-01-21T09:23:49.258Z",
    "__v": 0,
    "id": "6009482563f4d4318d32b19b"
  },
  {
    "_id": "6009482563f4d4318d32b19c",
    "simpleSpread": 0.0047999999999999154,
    "spread": 0.0013825282986260883,
    "askQty": 110,
    "askPrice": 3.4743,
    "bidQty": 110,
    "bidPrice": 3.4695,
    "symbol": "OMGUSDT",
    "createdAt": "2021-01-21T09:23:49.261Z",
    "updatedAt": "2021-01-21T09:23:49.261Z",
    "__v": 0,
    "id": "6009482563f4d4318d32b19c"
  },
  {
    "_id": "6009482f63f4d4318d32b19d",
    "simpleSpread": 0.005199999999999871,
    "spread": 0.0014986454550694193,
    "askQty": 110,
    "askPrice": 3.4724,
    "bidQty": 262.45,
    "bidPrice": 3.4672,
    "symbol": "OMGUSDT",
    "createdAt": "2021-01-21T09:23:59.451Z",
    "updatedAt": "2021-01-21T09:23:59.451Z",
    "__v": 0,
    "id": "6009482f63f4d4318d32b19d"
  },
  {
    "_id": "6009483a63f4d4318d32b19e",
    "simpleSpread": 0.0043000000000001926,
    "spread": 0.0012378909792293963,
    "askQty": 18.78,
    "askPrice": 3.4758,
    "bidQty": 579.05,
    "bidPrice": 3.4715,
    "symbol": "OMGUSDT",
    "createdAt": "2021-01-21T09:24:10.088Z",
    "updatedAt": "2021-01-21T09:24:10.088Z",
    "__v": 0,
    "id": "6009483a63f4d4318d32b19e"
  },
  {
    "_id": "6009484363f4d4318d32b19f",
    "simpleSpread": 0.18999999999999773,
    "spread": 0.0013247341816280127,
    "askQty": 29.84379,
    "askPrice": 143.52,
    "bidQty": 2.5989,
    "bidPrice": 143.33,
    "symbol": "XMRUSDT",
    "createdAt": "2021-01-21T09:24:19.548Z",
    "updatedAt": "2021-01-21T09:24:19.548Z",
    "__v": 0,
    "id": "6009484363f4d4318d32b19f"
  },
  {
    "_id": "6009484363f4d4318d32b1a0",
    "simpleSpread": 0.0052000000000003155,
    "spread": 0.0014969628925930033,
    "askQty": 262.45,
    "askPrice": 3.4763,
    "bidQty": 262.45,
    "bidPrice": 3.4711,
    "symbol": "OMGUSDT",
    "createdAt": "2021-01-21T09:24:19.551Z",
    "updatedAt": "2021-01-21T09:24:19.551Z",
    "__v": 0,
    "id": "6009484363f4d4318d32b1a0"
  },
  {
    "_id": "6009484d63f4d4318d32b1a1",
    "simpleSpread": 0.0040999999999997705,
    "spread": 0.0011783132876377034,
    "askQty": 110,
    "askPrice": 3.4816,
    "bidQty": 110,
    "bidPrice": 3.4775,
    "symbol": "OMGUSDT",
    "createdAt": "2021-01-21T09:24:29.218Z",
    "updatedAt": "2021-01-21T09:24:29.218Z",
    "__v": 0,
    "id": "6009484d63f4d4318d32b1a1"
  },
  {
    "_id": "6009486163f4d4318d32b1a2",
    "simpleSpread": 0.00028000000000000247,
    "spread": 0.0010140518615094974,
    "askQty": 22371.3,
    "askPrice": 0.27626,
    "bidQty": 13392.3,
    "bidPrice": 0.27598,
    "symbol": "XLMUSDT",
    "createdAt": "2021-01-21T09:24:49.834Z",
    "updatedAt": "2021-01-21T09:24:49.834Z",
    "__v": 0,
    "id": "6009486163f4d4318d32b1a2"
  },
  {
    "_id": "6009486163f4d4318d32b1a3",
    "simpleSpread": 0.14000000000000057,
    "spread": 0.0012952169488389357,
    "askQty": 10.02698,
    "askPrice": 108.16,
    "bidQty": 12.07573,
    "bidPrice": 108.02,
    "symbol": "DASHUSDT",
    "createdAt": "2021-01-21T09:24:49.838Z",
    "updatedAt": "2021-01-21T09:24:49.838Z",
    "__v": 0,
    "id": "6009486163f4d4318d32b1a3"
  },
  {
    "_id": "6009486b63f4d4318d32b1a4",
    "simpleSpread": 0.14999999999997726,
    "spread": 0.001044386422976343,
    "askQty": 4.62864,
    "askPrice": 143.7,
    "bidQty": 12.25317,
    "bidPrice": 143.55,
    "symbol": "XMRUSDT",
    "createdAt": "2021-01-21T09:24:59.444Z",
    "updatedAt": "2021-01-21T09:24:59.444Z",
    "__v": 0,
    "id": "6009486b63f4d4318d32b1a4"
  },
  {
    "_id": "6009487563f4d4318d32b1a5",
    "simpleSpread": 0.18000000000000682,
    "spread": 0.0012534818941504653,
    "askQty": 0.95371,
    "askPrice": 143.69,
    "bidQty": 17.07714,
    "bidPrice": 143.51,
    "symbol": "XMRUSDT",
    "createdAt": "2021-01-21T09:25:09.581Z",
    "updatedAt": "2021-01-21T09:25:09.581Z",
    "__v": 0,
    "id": "6009487563f4d4318d32b1a5"
  },
  {
    "_id": "6009487f63f4d4318d32b1a6",
    "simpleSpread": 0.1599999999999966,
    "spread": 0.0011146718684686956,
    "askQty": 8.94457,
    "askPrice": 143.62,
    "bidQty": 0.99393,
    "bidPrice": 143.46,
    "symbol": "XMRUSDT",
    "createdAt": "2021-01-21T09:25:19.882Z",
    "updatedAt": "2021-01-21T09:25:19.882Z",
    "__v": 0,
    "id": "6009487f63f4d4318d32b1a6"
  },
  {
    "_id": "6009488963f4d4318d32b1a7",
    "simpleSpread": 0.21999999999999886,
    "spread": 0.0015324602953468854,
    "askQty": 0.98867,
    "askPrice": 143.67,
    "bidQty": 1.05575,
    "bidPrice": 143.45,
    "symbol": "XMRUSDT",
    "createdAt": "2021-01-21T09:25:29.224Z",
    "updatedAt": "2021-01-21T09:25:29.224Z",
    "__v": 0,
    "id": "6009488963f4d4318d32b1a7"
  },
  {
    "_id": "6009488963f4d4318d32b1a8",
    "simpleSpread": 0.12000000000000455,
    "spread": 0.0011108025548459183,
    "askQty": 37.91387,
    "askPrice": 108.09,
    "bidQty": 1.72797,
    "bidPrice": 107.97,
    "symbol": "DASHUSDT",
    "createdAt": "2021-01-21T09:25:29.228Z",
    "updatedAt": "2021-01-21T09:25:29.228Z",
    "__v": 0,
    "id": "6009488963f4d4318d32b1a8"
  },
  {
    "_id": "6009488963f4d4318d32b1a9",
    "simpleSpread": 0.0036000000000000476,
    "spread": 0.00103374012921753,
    "askQty": 110,
    "askPrice": 3.4843,
    "bidQty": 99.01,
    "bidPrice": 3.4807,
    "symbol": "OMGUSDT",
    "createdAt": "2021-01-21T09:25:29.231Z",
    "updatedAt": "2021-01-21T09:25:29.231Z",
    "__v": 0,
    "id": "6009488963f4d4318d32b1a9"
  },
  {
    "_id": "6009489363f4d4318d32b1aa",
    "simpleSpread": 0.006299999999999972,
    "spread": 0.001810735072213831,
    "askQty": 110,
    "askPrice": 3.4824,
    "bidQty": 207.35,
    "bidPrice": 3.4761,
    "symbol": "OMGUSDT",
    "createdAt": "2021-01-21T09:25:39.876Z",
    "updatedAt": "2021-01-21T09:25:39.876Z",
    "__v": 0,
    "id": "6009489363f4d4318d32b1aa"
  },
  {
    "_id": "6009489d63f4d4318d32b1ab",
    "simpleSpread": 0.027000000000001023,
    "spread": 0.0011227311474728578,
    "askQty": 8.51,
    "askPrice": 24.062,
    "bidQty": 65.672,
    "bidPrice": 24.035,
    "symbol": "NEOUSDT",
    "createdAt": "2021-01-21T09:25:49.227Z",
    "updatedAt": "2021-01-21T09:25:49.227Z",
    "__v": 0,
    "id": "6009489d63f4d4318d32b1ab"
  },
  {
    "_id": "6009489d63f4d4318d32b1ac",
    "simpleSpread": 0.15000000000000568,
    "spread": 0.0010459156991946845,
    "askQty": 12.25317,
    "askPrice": 143.49,
    "bidQty": 2.37063,
    "bidPrice": 143.34,
    "symbol": "XMRUSDT",
    "createdAt": "2021-01-21T09:25:49.234Z",
    "updatedAt": "2021-01-21T09:25:49.234Z",
    "__v": 0,
    "id": "6009489d63f4d4318d32b1ac"
  },
  {
    "_id": "6009489d63f4d4318d32b1ad",
    "simpleSpread": 0.017000000000003013,
    "spread": 0.0010526772058233492,
    "askQty": 10,
    "askPrice": 16.1578,
    "bidQty": 185.22,
    "bidPrice": 16.1408,
    "symbol": "DOTUSDT",
    "createdAt": "2021-01-21T09:25:49.239Z",
    "updatedAt": "2021-01-21T09:25:49.239Z",
    "__v": 0,
    "id": "6009489d63f4d4318d32b1ad"
  },
  {
    "_id": "600948a763f4d4318d32b1ae",
    "simpleSpread": 0.10999999999999943,
    "spread": 0.0010200769694440528,
    "askQty": 2.45293,
    "askPrice": 107.89,
    "bidQty": 15.85641,
    "bidPrice": 107.78,
    "symbol": "DASHUSDT",
    "createdAt": "2021-01-21T09:25:59.866Z",
    "updatedAt": "2021-01-21T09:25:59.866Z",
    "__v": 0,
    "id": "600948a763f4d4318d32b1ae"
  },
  {
    "_id": "600948a763f4d4318d32b1af",
    "simpleSpread": 0.0040999999999997705,
    "spread": 0.001179499719509147,
    "askQty": 262.45,
    "askPrice": 3.4781,
    "bidQty": 5.83,
    "bidPrice": 3.474,
    "symbol": "OMGUSDT",
    "createdAt": "2021-01-21T09:25:59.870Z",
    "updatedAt": "2021-01-21T09:25:59.870Z",
    "__v": 0,
    "id": "600948a763f4d4318d32b1af"
  },
  {
    "_id": "600948b163f4d4318d32b1b0",
    "simpleSpread": 0.0049000000000001265,
    "spread": 0.0014081066712646024,
    "askQty": 239.95,
    "askPrice": 3.4823,
    "bidQty": 38.12,
    "bidPrice": 3.4774,
    "symbol": "OMGUSDT",
    "createdAt": "2021-01-21T09:26:09.814Z",
    "updatedAt": "2021-01-21T09:26:09.814Z",
    "__v": 0,
    "id": "600948b163f4d4318d32b1b0"
  },
  {
    "_id": "600949a1f5732537d5fa13b0",
    "simpleSpread": 0.15000000000000568,
    "spread": 0.0010547410610695475,
    "askQty": 2.06527,
    "askPrice": 142.29,
    "bidQty": 5.31779,
    "bidPrice": 142.14,
    "symbol": "XMRUSDT",
    "createdAt": "2021-01-21T09:30:09.987Z",
    "updatedAt": "2021-01-21T09:30:09.987Z",
    "__v": 0,
    "id": "600949a1f5732537d5fa13b0"
  },
  {
    "_id": "600949a1f5732537d5fa13b1",
    "simpleSpread": 0.12000000000000455,
    "spread": 0.0011234903098961196,
    "askQty": 2.3455,
    "askPrice": 106.87,
    "bidQty": 2.85042,
    "bidPrice": 106.75,
    "symbol": "DASHUSDT",
    "createdAt": "2021-01-21T09:30:09.994Z",
    "updatedAt": "2021-01-21T09:30:09.994Z",
    "__v": 0,
    "id": "600949a1f5732537d5fa13b1"
  },
  {
    "_id": "600949abf5732537d5fa13b2",
    "simpleSpread": 0.018299999999999983,
    "spread": 0.0011470369778396206,
    "askQty": 77.69,
    "askPrice": 15.9633,
    "bidQty": 438.66,
    "bidPrice": 15.945,
    "symbol": "DOTUSDT",
    "createdAt": "2021-01-21T09:30:19.623Z",
    "updatedAt": "2021-01-21T09:30:19.623Z",
    "__v": 0,
    "id": "600949abf5732537d5fa13b2"
  },
  {
    "_id": "600949b6f5732537d5fa13b3",
    "simpleSpread": 0.15000000000000568,
    "spread": 0.0010530380146723697,
    "askQty": 24.11102,
    "askPrice": 142.52,
    "bidQty": 1.5989,
    "bidPrice": 142.37,
    "symbol": "XMRUSDT",
    "createdAt": "2021-01-21T09:30:30.740Z",
    "updatedAt": "2021-01-21T09:30:30.740Z",
    "__v": 0,
    "id": "600949b6f5732537d5fa13b3"
  },
  {
    "_id": "600949bff5732537d5fa13b4",
    "simpleSpread": 0.00046000000000001595,
    "spread": 0.0013366653106294413,
    "askQty": 1147.5,
    "askPrice": 0.34437,
    "bidQty": 2816,
    "bidPrice": 0.34391,
    "symbol": "ADAUSDT",
    "createdAt": "2021-01-21T09:30:39.565Z",
    "updatedAt": "2021-01-21T09:30:39.565Z",
    "__v": 0,
    "id": "600949bff5732537d5fa13b4"
  },
  {
    "_id": "600949bff5732537d5fa13b5",
    "simpleSpread": 0.18999999999999773,
    "spread": 0.001334691440413036,
    "askQty": 1.5989,
    "askPrice": 142.45,
    "bidQty": 3.7,
    "bidPrice": 142.26,
    "symbol": "XMRUSDT",
    "createdAt": "2021-01-21T09:30:39.569Z",
    "updatedAt": "2021-01-21T09:30:39.569Z",
    "__v": 0,
    "id": "600949bff5732537d5fa13b5"
  },
  {
    "_id": "600949bff5732537d5fa13b6",
    "simpleSpread": 0.0038999999999997925,
    "spread": 0.0011357514160489808,
    "askQty": 93.7,
    "askPrice": 3.4358,
    "bidQty": 110,
    "bidPrice": 3.4319,
    "symbol": "OMGUSDT",
    "createdAt": "2021-01-21T09:30:39.572Z",
    "updatedAt": "2021-01-21T09:30:39.572Z",
    "__v": 0,
    "id": "600949bff5732537d5fa13b6"
  },
  {
    "_id": "600949c9f5732537d5fa13b7",
    "simpleSpread": 0.12000000000000455,
    "spread": 0.0011223344556678316,
    "askQty": 83.42097,
    "askPrice": 106.98,
    "bidQty": 29.44455,
    "bidPrice": 106.86,
    "symbol": "DASHUSDT",
    "createdAt": "2021-01-21T09:30:49.418Z",
    "updatedAt": "2021-01-21T09:30:49.418Z",
    "__v": 0,
    "id": "600949c9f5732537d5fa13b7"
  },
  {
    "_id": "600949c9f5732537d5fa13b8",
    "simpleSpread": 0.0045999999999999375,
    "spread": 0.0013407951498192658,
    "askQty": 110,
    "askPrice": 3.4331,
    "bidQty": 110,
    "bidPrice": 3.4285,
    "symbol": "OMGUSDT",
    "createdAt": "2021-01-21T09:30:49.423Z",
    "updatedAt": "2021-01-21T09:30:49.423Z",
    "__v": 0,
    "id": "600949c9f5732537d5fa13b8"
  },
  {
    "_id": "600949d3f5732537d5fa13b9",
    "simpleSpread": 0.00030000000000002247,
    "spread": 0.0010937329104233565,
    "askQty": 1079.3,
    "askPrice": 0.27444,
    "bidQty": 1205.7,
    "bidPrice": 0.27414,
    "symbol": "XLMUSDT",
    "createdAt": "2021-01-21T09:30:59.650Z",
    "updatedAt": "2021-01-21T09:30:59.650Z",
    "__v": 0,
    "id": "600949d3f5732537d5fa13b9"
  },
  {
    "_id": "600949d3f5732537d5fa13ba",
    "simpleSpread": 0.1599999999999966,
    "spread": 0.001124859392575904,
    "askQty": 2.62864,
    "askPrice": 142.32,
    "bidQty": 2,
    "bidPrice": 142.16,
    "symbol": "XMRUSDT",
    "createdAt": "2021-01-21T09:30:59.657Z",
    "updatedAt": "2021-01-21T09:30:59.657Z",
    "__v": 0,
    "id": "600949d3f5732537d5fa13ba"
  },
  {
    "_id": "600949d3f5732537d5fa13bb",
    "simpleSpread": 0.006199999999999761,
    "spread": 0.001807422091362202,
    "askQty": 110,
    "askPrice": 3.4334,
    "bidQty": 110,
    "bidPrice": 3.4272,
    "symbol": "OMGUSDT",
    "createdAt": "2021-01-21T09:30:59.661Z",
    "updatedAt": "2021-01-21T09:30:59.661Z",
    "__v": 0,
    "id": "600949d3f5732537d5fa13bb"
  },
  {
    "_id": "600949ddf5732537d5fa13bc",
    "simpleSpread": 0.00042000000000003146,
    "spread": 0.0012199372603695579,
    "askQty": 13758.7,
    "askPrice": 0.34449,
    "bidQty": 8598.2,
    "bidPrice": 0.34407,
    "symbol": "ADAUSDT",
    "createdAt": "2021-01-21T09:31:09.304Z",
    "updatedAt": "2021-01-21T09:31:09.304Z",
    "__v": 0,
    "id": "600949ddf5732537d5fa13bc"
  },
  {
    "_id": "600949e7f5732537d5fa13bd",
    "simpleSpread": 0.1699999999999875,
    "spread": 0.0011936944844292208,
    "askQty": 3.7,
    "askPrice": 142.5,
    "bidQty": 1.69096,
    "bidPrice": 142.33,
    "symbol": "XMRUSDT",
    "createdAt": "2021-01-21T09:31:19.395Z",
    "updatedAt": "2021-01-21T09:31:19.395Z",
    "__v": 0,
    "id": "600949e7f5732537d5fa13bd"
  },
  {
    "_id": "600949f2f5732537d5fa13be",
    "simpleSpread": 0.18000000000000682,
    "spread": 0.0012640449438202726,
    "askQty": 0.75,
    "askPrice": 142.49,
    "bidQty": 6.96731,
    "bidPrice": 142.31,
    "symbol": "XMRUSDT",
    "createdAt": "2021-01-21T09:31:30.274Z",
    "updatedAt": "2021-01-21T09:31:30.274Z",
    "__v": 0,
    "id": "600949f2f5732537d5fa13be"
  },
  {
    "_id": "600949f2f5732537d5fa13bf",
    "simpleSpread": 0.12999999999999545,
    "spread": 0.0012167158032663713,
    "askQty": 7.55951,
    "askPrice": 106.91,
    "bidQty": 6.72217,
    "bidPrice": 106.78,
    "symbol": "DASHUSDT",
    "createdAt": "2021-01-21T09:31:30.278Z",
    "updatedAt": "2021-01-21T09:31:30.278Z",
    "__v": 0,
    "id": "600949f2f5732537d5fa13bf"
  },
  {
    "_id": "600949fbf5732537d5fa13c0",
    "simpleSpread": 0.15000000000000568,
    "spread": 0.001053259839202371,
    "askQty": 72.30177,
    "askPrice": 142.49,
    "bidQty": 1.99549,
    "bidPrice": 142.34,
    "symbol": "XMRUSDT",
    "createdAt": "2021-01-21T09:31:39.379Z",
    "updatedAt": "2021-01-21T09:31:39.379Z",
    "__v": 0,
    "id": "600949fbf5732537d5fa13c0"
  },
  {
    "_id": "600949fbf5732537d5fa13c1",
    "simpleSpread": 0.0036000000000000476,
    "spread": 0.0010505427804365728,
    "askQty": 110,
    "askPrice": 3.4286,
    "bidQty": 56.52,
    "bidPrice": 3.425,
    "symbol": "OMGUSDT",
    "createdAt": "2021-01-21T09:31:39.381Z",
    "updatedAt": "2021-01-21T09:31:39.381Z",
    "__v": 0,
    "id": "600949fbf5732537d5fa13c1"
  },
  {
    "_id": "60094a05f5732537d5fa13c2",
    "simpleSpread": 0.0044999999999997264,
    "spread": 0.0013161935682006836,
    "askQty": 1147.73,
    "askPrice": 3.4212,
    "bidQty": 285.21,
    "bidPrice": 3.4167,
    "symbol": "OMGUSDT",
    "createdAt": "2021-01-21T09:31:49.900Z",
    "updatedAt": "2021-01-21T09:31:49.900Z",
    "__v": 0,
    "id": "60094a05f5732537d5fa13c2"
  },
  {
    "_id": "60094a0ff5732537d5fa13c3",
    "simpleSpread": 0.23999999999998067,
    "spread": 0.0016884761502742416,
    "askQty": 1.3432,
    "askPrice": 142.26,
    "bidQty": 32.68153,
    "bidPrice": 142.02,
    "symbol": "XMRUSDT",
    "createdAt": "2021-01-21T09:31:59.790Z",
    "updatedAt": "2021-01-21T09:31:59.790Z",
    "__v": 0,
    "id": "60094a0ff5732537d5fa13c3"
  },
  {
    "_id": "60094a0ff5732537d5fa13c4",
    "simpleSpread": 0.037000000000002586,
    "spread": 0.0015592406076825294,
    "askQty": 4.21,
    "askPrice": 23.748,
    "bidQty": 2.105,
    "bidPrice": 23.711,
    "symbol": "NEOUSDT",
    "createdAt": "2021-01-21T09:31:59.792Z",
    "updatedAt": "2021-01-21T09:31:59.792Z",
    "__v": 0,
    "id": "60094a0ff5732537d5fa13c4"
  },
  {
    "_id": "60094a0ff5732537d5fa13c5",
    "simpleSpread": 0.14000000000000057,
    "spread": 0.0013128282070517684,
    "askQty": 9.97203,
    "askPrice": 106.71,
    "bidQty": 11.6,
    "bidPrice": 106.57,
    "symbol": "DASHUSDT",
    "createdAt": "2021-01-21T09:31:59.798Z",
    "updatedAt": "2021-01-21T09:31:59.798Z",
    "__v": 0,
    "id": "60094a0ff5732537d5fa13c5"
  },
  {
    "_id": "60094a0ff5732537d5fa13c6",
    "simpleSpread": 0.0035000000000002807,
    "spread": 0.001024575167225386,
    "askQty": 29.32,
    "askPrice": 3.4178,
    "bidQty": 68.11,
    "bidPrice": 3.4143,
    "symbol": "OMGUSDT",
    "createdAt": "2021-01-21T09:31:59.804Z",
    "updatedAt": "2021-01-21T09:31:59.804Z",
    "__v": 0,
    "id": "60094a0ff5732537d5fa13c6"
  },
  {
    "_id": "60094a0ff5732537d5fa13c7",
    "simpleSpread": 0.5400000000000205,
    "spread": 0.0011883541295306453,
    "askQty": 3.5,
    "askPrice": 454.68,
    "bidQty": 20.78971,
    "bidPrice": 454.14,
    "symbol": "BCHUSDT",
    "createdAt": "2021-01-21T09:31:59.810Z",
    "updatedAt": "2021-01-21T09:31:59.810Z",
    "__v": 0,
    "id": "60094a0ff5732537d5fa13c7"
  },
  {
    "_id": "60094a0ff5732537d5fa13c8",
    "simpleSpread": 0.017599999999999838,
    "spread": 0.001106890392694513,
    "askQty": 183.45,
    "askPrice": 15.9092,
    "bidQty": 20,
    "bidPrice": 15.8916,
    "symbol": "DOTUSDT",
    "createdAt": "2021-01-21T09:31:59.814Z",
    "updatedAt": "2021-01-21T09:31:59.814Z",
    "__v": 0,
    "id": "60094a0ff5732537d5fa13c8"
  },
  {
    "_id": "60094a19f5732537d5fa13c9",
    "simpleSpread": 0.03400000000000247,
    "spread": 0.001431337879936115,
    "askQty": 228.98,
    "askPrice": 23.771,
    "bidQty": 2.104,
    "bidPrice": 23.737,
    "symbol": "NEOUSDT",
    "createdAt": "2021-01-21T09:32:09.742Z",
    "updatedAt": "2021-01-21T09:32:09.742Z",
    "__v": 0,
    "id": "60094a19f5732537d5fa13c9"
  },
  {
    "_id": "60094a19f5732537d5fa13ca",
    "simpleSpread": 0.18000000000000682,
    "spread": 0.0012657337739962508,
    "askQty": 12.25317,
    "askPrice": 142.3,
    "bidQty": 7.79727,
    "bidPrice": 142.12,
    "symbol": "XMRUSDT",
    "createdAt": "2021-01-21T09:32:09.750Z",
    "updatedAt": "2021-01-21T09:32:09.750Z",
    "__v": 0,
    "id": "60094a19f5732537d5fa13ca"
  },
  {
    "_id": "60094a19f5732537d5fa13cb",
    "simpleSpread": 0.15000000000000568,
    "spread": 0.0014061401453012016,
    "askQty": 1,
    "askPrice": 106.75,
    "bidQty": 16.97081,
    "bidPrice": 106.6,
    "symbol": "DASHUSDT",
    "createdAt": "2021-01-21T09:32:09.753Z",
    "updatedAt": "2021-01-21T09:32:09.753Z",
    "__v": 0,
    "id": "60094a19f5732537d5fa13cb"
  },
  {
    "_id": "60094a19f5732537d5fa13cc",
    "simpleSpread": 0.004400000000000404,
    "spread": 0.0012874908558889258,
    "askQty": 110,
    "askPrice": 3.4197,
    "bidQty": 67.1,
    "bidPrice": 3.4153,
    "symbol": "OMGUSDT",
    "createdAt": "2021-01-21T09:32:09.761Z",
    "updatedAt": "2021-01-21T09:32:09.761Z",
    "__v": 0,
    "id": "60094a19f5732537d5fa13cc"
  },
  {
    "_id": "60094a19f5732537d5fa13cd",
    "simpleSpread": 0.027200000000000557,
    "spread": 0.0017112514784709816,
    "askQty": 412.39,
    "askPrice": 15.9084,
    "bidQty": 20.73,
    "bidPrice": 15.8812,
    "symbol": "DOTUSDT",
    "createdAt": "2021-01-21T09:32:09.766Z",
    "updatedAt": "2021-01-21T09:32:09.766Z",
    "__v": 0,
    "id": "60094a19f5732537d5fa13cd"
  },
  {
    "_id": "60094a23f5732537d5fa13ce",
    "simpleSpread": 0.02499999999999858,
    "spread": 0.001052210694669441,
    "askQty": 238.479,
    "askPrice": 23.772,
    "bidQty": 2.103,
    "bidPrice": 23.747,
    "symbol": "NEOUSDT",
    "createdAt": "2021-01-21T09:32:19.535Z",
    "updatedAt": "2021-01-21T09:32:19.535Z",
    "__v": 0,
    "id": "60094a23f5732537d5fa13ce"
  },
  {
    "_id": "60094b54f5732537d5fa13d3",
    "simpleSpread": 0.05099999999999838,
    "spread": 0.0021592328372742175,
    "askQty": 76.837,
    "askPrice": 23.645,
    "bidQty": 37.172,
    "bidPrice": 23.594,
    "symbol": "NEOUSDT",
    "createdAt": "2021-01-21T09:37:24.650Z",
    "updatedAt": "2021-01-21T09:37:24.650Z",
    "__v": 0,
    "id": "60094b54f5732537d5fa13d3"
  },
  {
    "_id": "60094ba4f5732537d5fa13d4",
    "simpleSpread": 0.05999999999999872,
    "spread": 0.002531752394615753,
    "askQty": 100,
    "askPrice": 23.729,
    "bidQty": 49.962,
    "bidPrice": 23.669,
    "symbol": "NEOUSDT",
    "createdAt": "2021-01-21T09:38:44.448Z",
    "updatedAt": "2021-01-21T09:38:44.448Z",
    "__v": 0,
    "id": "60094ba4f5732537d5fa13d4"
  },
  {
    "_id": "60094bebf5732537d5fa13d5",
    "simpleSpread": 0.009999999999999787,
    "spread": 0.0028912597218607532,
    "askQty": 208.54,
    "askPrice": 3.4637,
    "bidQty": 167.75,
    "bidPrice": 3.4537,
    "symbol": "OMGUSDT",
    "createdAt": "2021-01-21T09:39:55.117Z",
    "updatedAt": "2021-01-21T09:39:55.117Z",
    "__v": 0,
    "id": "60094bebf5732537d5fa13d5"
  },
  {
    "_id": "6009707257e2770753bbd533",
    "simpleSpread": 0.04800000000000182,
    "spread": 0.002092232586522614,
    "askQty": 173.999,
    "askPrice": 22.966,
    "bidQty": 4.356,
    "bidPrice": 22.918,
    "symbol": "NEOUSDT",
    "createdAt": "2021-01-21T12:15:46.987Z",
    "updatedAt": "2021-01-21T12:15:46.987Z",
    "__v": 0,
    "id": "6009707257e2770753bbd533"
  },
  {
    "_id": "6009707c57e2770753bbd534",
    "simpleSpread": 0.22000000000001307,
    "spread": 0.0021117296985987046,
    "askQty": 7.31359,
    "askPrice": 104.29,
    "bidQty": 4.1,
    "bidPrice": 104.07,
    "symbol": "DASHUSDT",
    "createdAt": "2021-01-21T12:15:56.302Z",
    "updatedAt": "2021-01-21T12:15:56.302Z",
    "__v": 0,
    "id": "6009707c57e2770753bbd534"
  },
  {
    "_id": "600a3dbecd2e480e2adff7f7",
    "simpleSpread": 0.007800000000000029,
    "spread": 0.002480442663613824,
    "askQty": 213.99,
    "askPrice": 3.1485,
    "bidQty": 225.75,
    "bidPrice": 3.1407,
    "symbol": "OMGUSDT",
    "createdAt": "2021-01-22T02:51:42.466Z",
    "updatedAt": "2021-01-22T02:51:42.466Z",
    "__v": 0,
    "id": "600a3dbecd2e480e2adff7f7"
  },
  {
    "_id": "600a3feecd2e480e2adff7f8",
    "simpleSpread": 0.006400000000000183,
    "spread": 0.0020087884494664732,
    "askQty": 110,
    "askPrice": 3.1892,
    "bidQty": 110,
    "bidPrice": 3.1828,
    "symbol": "OMGUSDT",
    "createdAt": "2021-01-22T03:01:02.211Z",
    "updatedAt": "2021-01-22T03:01:02.211Z",
    "__v": 0,
    "id": "600a3feecd2e480e2adff7f8"
  },
  {
    "_id": "600a4002cd2e480e2adff7f9",
    "simpleSpread": 0.006400000000000183,
    "spread": 0.002018481723278829,
    "askQty": 228.6,
    "askPrice": 3.1739,
    "bidQty": 122.67,
    "bidPrice": 3.1675,
    "symbol": "OMGUSDT",
    "createdAt": "2021-01-22T03:01:22.305Z",
    "updatedAt": "2021-01-22T03:01:22.305Z",
    "__v": 0,
    "id": "600a4002cd2e480e2adff7f9"
  },
  {
    "_id": "600a4142cd2e480e2adff7fa",
    "simpleSpread": 0.006400000000000183,
    "spread": 0.0020348467506041534,
    "askQty": 3125.81,
    "askPrice": 3.1484,
    "bidQty": 25.98,
    "bidPrice": 3.142,
    "symbol": "OMGUSDT",
    "createdAt": "2021-01-22T03:06:42.729Z",
    "updatedAt": "2021-01-22T03:06:42.729Z",
    "__v": 0,
    "id": "600a4142cd2e480e2adff7fa"
  },
  {
    "_id": "600a41cecd2e480e2adff7fb",
    "simpleSpread": 0.006400000000000183,
    "spread": 0.0020273694880892624,
    "askQty": 206.87,
    "askPrice": 3.16,
    "bidQty": 221.6,
    "bidPrice": 3.1536,
    "symbol": "OMGUSDT",
    "createdAt": "2021-01-22T03:09:02.257Z",
    "updatedAt": "2021-01-22T03:09:02.257Z",
    "__v": 0,
    "id": "600a41cecd2e480e2adff7fb"
  },
  {
    "_id": "600a4412cd2e480e2adff7fc",
    "simpleSpread": 0.006800000000000139,
    "spread": 0.002173079381311562,
    "askQty": 219.91,
    "askPrice": 3.1326,
    "bidQty": 221.84,
    "bidPrice": 3.1258,
    "symbol": "OMGUSDT",
    "createdAt": "2021-01-22T03:18:42.636Z",
    "updatedAt": "2021-01-22T03:18:42.636Z",
    "__v": 0,
    "id": "600a4412cd2e480e2adff7fc"
  },
  {
    "_id": "600a457acd2e480e2adff7fd",
    "simpleSpread": 0.00690000000000035,
    "spread": 0.0022059176137727106,
    "askQty": 262.45,
    "askPrice": 3.1314,
    "bidQty": 262.45,
    "bidPrice": 3.1245,
    "symbol": "OMGUSDT",
    "createdAt": "2021-01-22T03:24:42.756Z",
    "updatedAt": "2021-01-22T03:24:42.756Z",
    "__v": 0,
    "id": "600a457acd2e480e2adff7fd"
  },
  {
    "_id": "600a466acd2e480e2adff7fe",
    "simpleSpread": 0.008199999999999985,
    "spread": 0.0026132959398304494,
    "askQty": 171.61,
    "askPrice": 3.1419,
    "bidQty": 98,
    "bidPrice": 3.1337,
    "symbol": "OMGUSDT",
    "createdAt": "2021-01-22T03:28:42.434Z",
    "updatedAt": "2021-01-22T03:28:42.434Z",
    "__v": 0,
    "id": "600a466acd2e480e2adff7fe"
  },
  {
    "_id": "600a960886c6f7080b4f4c5b",
    "simpleSpread": 0.00690000000000035,
    "spread": 0.0021196528684433915,
    "askQty": 215.33,
    "askPrice": 3.2587,
    "bidQty": 218.42,
    "bidPrice": 3.2518,
    "symbol": "OMGUSDT",
    "createdAt": "2021-01-22T09:08:24.779Z",
    "updatedAt": "2021-01-22T09:08:24.779Z",
    "__v": 0,
    "id": "600a960886c6f7080b4f4c5b"
  },
  {
    "_id": "600aad4df1280f05e2a8a0f0",
    "simpleSpread": 0.006600000000000161,
    "spread": 0.0020009095043201945,
    "askQty": 215.78,
    "askPrice": 3.3018,
    "bidQty": 33,
    "bidPrice": 3.2952,
    "symbol": "OMGUSDT",
    "createdAt": "2021-01-22T10:47:41.686Z",
    "updatedAt": "2021-01-22T10:47:41.686Z",
    "__v": 0,
    "id": "600aad4df1280f05e2a8a0f0"
  },
  {
    "_id": "600ab185f1280f05e2a8a0f1",
    "simpleSpread": 0.006800000000000139,
    "spread": 0.0020532020894351096,
    "askQty": 213.08,
    "askPrice": 3.3153,
    "bidQty": 23.55,
    "bidPrice": 3.3085,
    "symbol": "OMGUSDT",
    "createdAt": "2021-01-22T11:05:41.770Z",
    "updatedAt": "2021-01-22T11:05:41.770Z",
    "__v": 0,
    "id": "600ab185f1280f05e2a8a0f1"
  },
  {
    "_id": "600bbe57d6003307159f6e5e",
    "simpleSpread": 0.049200000000002575,
    "spread": 0.002068608860541394,
    "askQty": 114.36,
    "askPrice": 23.8087,
    "bidQty": 8.02,
    "bidPrice": 23.7595,
    "symbol": "LINKUSDT",
    "createdAt": "2021-01-23T06:12:39.264Z",
    "updatedAt": "2021-01-23T06:12:39.264Z",
    "__v": 0,
    "id": "600bbe57d6003307159f6e5e"
  },
  {
    "_id": "600bc195d6003307159f6e5f",
    "simpleSpread": 0.007400000000000073,
    "spread": 0.0021201615906942303,
    "askQty": 546.46,
    "askPrice": 3.494,
    "bidQty": 211.84,
    "bidPrice": 3.4866,
    "symbol": "OMGUSDT",
    "createdAt": "2021-01-23T06:26:29.315Z",
    "updatedAt": "2021-01-23T06:26:29.315Z",
    "__v": 0,
    "id": "600bc195d6003307159f6e5f"
  },
  {
    "_id": "600bc8bbd6003307159f6e60",
    "simpleSpread": 0.007100000000000328,
    "spread": 0.0020351128627732937,
    "askQty": 178.72,
    "askPrice": 3.4923,
    "bidQty": 93.7,
    "bidPrice": 3.4852,
    "symbol": "OMGUSDT",
    "createdAt": "2021-01-23T06:56:59.335Z",
    "updatedAt": "2021-01-23T06:56:59.335Z",
    "__v": 0,
    "id": "600bc8bbd6003307159f6e60"
  },
  {
    "_id": "600bd172d6003307159f6e61",
    "simpleSpread": 0.00749999999999984,
    "spread": 0.002130469981677913,
    "askQty": 211.82,
    "askPrice": 3.5241,
    "bidQty": 233.25,
    "bidPrice": 3.5166,
    "symbol": "OMGUSDT",
    "createdAt": "2021-01-23T07:34:10.081Z",
    "updatedAt": "2021-01-23T07:34:10.081Z",
    "__v": 0,
    "id": "600bd172d6003307159f6e61"
  },
  {
    "_id": "600bd776d6003307159f6e62",
    "simpleSpread": 0.05999999999999872,
    "spread": 0.0024272826570653633,
    "askQty": 37.599,
    "askPrice": 24.749,
    "bidQty": 123.189,
    "bidPrice": 24.689,
    "symbol": "NEOUSDT",
    "createdAt": "2021-01-23T07:59:50.422Z",
    "updatedAt": "2021-01-23T07:59:50.422Z",
    "__v": 0,
    "id": "600bd776d6003307159f6e62"
  },
  {
    "_id": "600bec90d6003307159f6e63",
    "simpleSpread": 0.007000000000000117,
    "spread": 0.0020164194152384033,
    "askQty": 213.87,
    "askPrice": 3.475,
    "bidQty": 48.01,
    "bidPrice": 3.468,
    "symbol": "OMGUSDT",
    "createdAt": "2021-01-23T09:29:52.945Z",
    "updatedAt": "2021-01-23T09:29:52.945Z",
    "__v": 0,
    "id": "600bec90d6003307159f6e63"
  },
  {
    "_id": "600c06d1d6003307159f6e65",
    "simpleSpread": 0.007299999999999862,
    "spread": 0.0022000874007323166,
    "askQty": 172.5,
    "askPrice": 3.3217,
    "bidQty": 4,
    "bidPrice": 3.3144,
    "symbol": "OMGUSDT",
    "createdAt": "2021-01-23T11:21:53.367Z",
    "updatedAt": "2021-01-23T11:21:53.367Z",
    "__v": 0,
    "id": "600c06d1d6003307159f6e65"
  },
  {
    "_id": "600c0f6ad6003307159f6e67",
    "simpleSpread": 0.007299999999999862,
    "spread": 0.002192290944036477,
    "askQty": 211.61,
    "askPrice": 3.3335,
    "bidQty": 226.03,
    "bidPrice": 3.3262,
    "symbol": "OMGUSDT",
    "createdAt": "2021-01-23T11:58:34.038Z",
    "updatedAt": "2021-01-23T11:58:34.038Z",
    "__v": 0,
    "id": "600c0f6ad6003307159f6e67"
  },
  {
    "_id": "600c1f1cd6003307159f6e68",
    "simpleSpread": 0.007200000000000095,
    "spread": 0.002162486859888901,
    "askQty": 21.78,
    "askPrice": 3.3331,
    "bidQty": 21.78,
    "bidPrice": 3.3259,
    "symbol": "OMGUSDT",
    "createdAt": "2021-01-23T13:05:32.855Z",
    "updatedAt": "2021-01-23T13:05:32.855Z",
    "__v": 0,
    "id": "600c1f1cd6003307159f6e68"
  },
  {
    "_id": "600c230fd6003307159f6e69",
    "simpleSpread": 0.28999999999999204,
    "spread": 0.0021064100236062614,
    "askQty": 4.82641,
    "askPrice": 137.82,
    "bidQty": 5.20704,
    "bidPrice": 137.53,
    "symbol": "XMRUSDT",
    "createdAt": "2021-01-23T13:22:23.712Z",
    "updatedAt": "2021-01-23T13:22:23.712Z",
    "__v": 0,
    "id": "600c230fd6003307159f6e69"
  },
  {
    "_id": "600c23cdd6003307159f6e6a",
    "simpleSpread": 0.04899999999999949,
    "spread": 0.0020055254271973597,
    "askQty": 33,
    "askPrice": 24.457,
    "bidQty": 18.738,
    "bidPrice": 24.408,
    "symbol": "NEOUSDT",
    "createdAt": "2021-01-23T13:25:33.405Z",
    "updatedAt": "2021-01-23T13:25:33.405Z",
    "__v": 0,
    "id": "600c23cdd6003307159f6e6a"
  },
  {
    "_id": "600c258fd6003307159f6e6b",
    "simpleSpread": 0.009100000000000108,
    "spread": 0.002653564086488725,
    "askQty": 204.46,
    "askPrice": 3.4339,
    "bidQty": 95.02,
    "bidPrice": 3.4248,
    "symbol": "OMGUSDT",
    "createdAt": "2021-01-23T13:33:03.666Z",
    "updatedAt": "2021-01-23T13:33:03.666Z",
    "__v": 0,
    "id": "600c258fd6003307159f6e6b"
  },
  {
    "_id": "600c284bd6003307159f6e6c",
    "simpleSpread": 0.007400000000000073,
    "spread": 0.002135642135642157,
    "askQty": 59.9,
    "askPrice": 3.4687,
    "bidQty": 55.13,
    "bidPrice": 3.4613,
    "symbol": "OMGUSDT",
    "createdAt": "2021-01-23T13:44:43.200Z",
    "updatedAt": "2021-01-23T13:44:43.200Z",
    "__v": 0,
    "id": "600c284bd6003307159f6e6c"
  },
  {
    "_id": "600c2854d6003307159f6e6d",
    "simpleSpread": 0.007699999999999818,
    "spread": 0.0022234735276706425,
    "askQty": 170.8,
    "askPrice": 3.4669,
    "bidQty": 262.45,
    "bidPrice": 3.4592,
    "symbol": "OMGUSDT",
    "createdAt": "2021-01-23T13:44:52.908Z",
    "updatedAt": "2021-01-23T13:44:52.908Z",
    "__v": 0,
    "id": "600c2854d6003307159f6e6d"
  },
  {
    "_id": "600c5aebd6003307159f6e6e",
    "simpleSpread": 0.006999999999999673,
    "spread": 0.002023004450609697,
    "askQty": 201.52,
    "askPrice": 3.4637,
    "bidQty": 214.67,
    "bidPrice": 3.4567,
    "symbol": "OMGUSDT",
    "createdAt": "2021-01-23T17:20:43.637Z",
    "updatedAt": "2021-01-23T17:20:43.637Z",
    "__v": 0,
    "id": "600c5aebd6003307159f6e6e"
  },
  {
    "_id": "600c676bd6003307159f6e6f",
    "simpleSpread": 0.3499999999999943,
    "spread": 0.0024929662737276565,
    "askQty": 3.6,
    "askPrice": 140.57,
    "bidQty": 5.32103,
    "bidPrice": 140.22,
    "symbol": "XMRUSDT",
    "createdAt": "2021-01-23T18:14:03.364Z",
    "updatedAt": "2021-01-23T18:14:03.364Z",
    "__v": 0,
    "id": "600c676bd6003307159f6e6f"
  },
  {
    "_id": "600c77f1d6003307159f6e70",
    "simpleSpread": 0.3100000000000023,
    "spread": 0.002228051892047309,
    "askQty": 12.25317,
    "askPrice": 139.29,
    "bidQty": 5.45394,
    "bidPrice": 138.98,
    "symbol": "XMRUSDT",
    "createdAt": "2021-01-23T19:24:33.209Z",
    "updatedAt": "2021-01-23T19:24:33.209Z",
    "__v": 0,
    "id": "600c77f1d6003307159f6e70"
  }
]